ISSS608-VAA - Take-home Exercise 1 Part 2: DataVis Makeover
…
Good font selection.

But there are too many colours which can be visual sensory overload and distracting for the viewer.

Improvement in Data Visualisation

Apartment, Condominium, and Terrace House

The code chunks below filter the combined data set to show only “Apartment” property type, and then plots a histogram to show the distribution of Unit Price ($ PSM) for Apartment:

apartment <- filter(private_property_data, `Property Type` == 'Apartment')

apartment

# A tibble: 10,772 × 21
   `Project Name`      `Transacted Price ($)` `Area (SQFT)` `Unit Price ($ PSF)`
   <chr>                                <dbl>         <dbl>                <dbl>
 1 WHISTLER GRAND                      850000          441.                 1926
 2 WILSHIRE RESIDENCES                1990000          753.                 2641
 3 WILSHIRE RESIDENCES                1975000          743.                 2659
 4 PARC CLEMATIS                      2735000         1464.                 1868
 5 MOOI RESIDENCES                    3288888         1281.                 2568
 6 THE URBANITE                       1470000         1173.                 1253
 7 ESPIRA RESIDENCE                   1280000         1141.                 1122
 8 THE SIERRA                         1715000         1033.                 1660
 9 THE SAIL @ MARINA …                1588888          883.                 1800
10 THOMSON THREE                       875000          495.                 1767
# ℹ 10,762 more rows
# ℹ 17 more variables: `Sale Date` <chr>, Address <chr>, `Type of Sale` <chr>,
#   `Type of Area` <chr>, `Area (SQM)` <dbl>, `Unit Price ($ PSM)` <dbl>,
#   `Nett Price($)` <chr>, `Property Type` <chr>, `Number of Units` <dbl>,
#   Tenure <chr>, `Completion Date` <chr>, `Purchaser Address Indicator` <chr>,
#   `Postal Code` <chr>, `Postal District` <chr>, `Postal Sector` <chr>,
#   `Planning Region` <chr>, `Planning Area` <chr>
…
Similarly, the code chunks below filter the combined data set to show only “Condominium” property type, and then plots a histogram to show the distribution of Unit Price ($ PSM) for Condominium:

condo <- filter(private_property_data, `Property Type` == 'Condominium')

condo

# A tibble: 10,643 × 21
   `Project Name`      `Transacted Price ($)` `Area (SQFT)` `Unit Price ($ PSF)`
   <chr>                                <dbl>         <dbl>                <dbl>
 1 THE REEF AT KING'S…                2317000          883.                 2625
 2 URBAN TREASURES                    1823500          883.                 2066
 3 PARC BOTANNIA                      1280000          872.                 1468
 4 AMBER PARK                         1888000          678.                 2784
 5 THE GAZANIA                        1477000          635.                 2326
 6 REFLECTIONS AT KEP…                2930000         1421.                 2062
 7 PARC EMILY                         2000000         1001.                 1998
 8 A TREASURE TROVE                   1060000          775.                 1368
 9 THE SIXTH AVENUE R…                2250000          969.                 2323
10 KEW GREEN                          2610000         3057.                  854
# ℹ 10,633 more rows
# ℹ 17 more variables: `Sale Date` <chr>, Address <chr>, `Type of Sale` <chr>,
#   `Type of Area` <chr>, `Area (SQM)` <dbl>, `Unit Price ($ PSM)` <dbl>,
#   `Nett Price($)` <chr>, `Property Type` <chr>, `Number of Units` <dbl>,
#   Tenure <chr>, `Completion Date` <chr>, `Purchaser Address Indicator` <chr>,
#   `Postal Code` <chr>, `Postal District` <chr>, `Postal Sector` <chr>,
#   `Planning Region` <chr>, `Planning Area` <chr>
…
Similarly, the code chunks below filter the combined data set to show only “Terrace House” property type, and then plots a histogram to show the distribution of Unit Price ($ PSM) for Terrace House:

terrace_house <- filter(private_property_data, `Property Type` == 'Terrace House')

terrace_house

# A tibble: 1,100 × 21
   `Project Name`      `Transacted Price ($)` `Area (SQFT)` `Unit Price ($ PSF)`
   <chr>                                <dbl>         <dbl>                <dbl>
 1 NANYANG PARK                       5870000         3323.                 1767
 2 N.A.                               3260000         1555.                 2096
 3 N.A.                               2800000         2292.                 1222
 4 PEAKVILLE PARK                     3300000         1668.                 1978
 5 HILLVIEW GARDEN ES…                3800000         2152.                 1766
 6 LOYANG VILLAS                      2350000         1660.                 1416
 7 KECHUBONG TERRACE                  3308000         1696.                 1950
 8 N.A.                               6000888         1702.                 3526
 9 GOLDEN HILL ESTATE                 5998000         3926.                 1528
10 THOMSON GRAND                      3600000         5156.                  698
# ℹ 1,090 more rows
# ℹ 17 more variables: `Sale Date` <chr>, Address <chr>, `Type of Sale` <chr>,
#   `Type of Area` <chr>, `Area (SQM)` <dbl>, `Unit Price ($ PSM)` <dbl>,
#   `Nett Price($)` <chr>, `Property Type` <chr>, `Number of Units` <dbl>,
#   Tenure <chr>, `Completion Date` <chr>, `Purchaser Address Indicator` <chr>,
#   `Postal Code` <chr>, `Postal District` <chr>, `Postal Sector` <chr>,
#   `Planning Region` <chr>, `Planning Area` <chr>
…
Detached House and Semi-Detached House

The code chunks below filter the combined data set to show only “Detached House” property type, and then plots a histogram to show the distribution of Unit Price ($ PSM) for Detached House:

detached_house <- filter(private_property_data, `Property Type` == 'Detached House')

detached_house

# A tibble: 233 × 21
   `Project Name`      `Transacted Price ($)` `Area (SQFT)` `Unit Price ($ PSF)`
   <chr>                                <dbl>         <dbl>                <dbl>
 1 CHANGI GROVE                       5600000         4585.                 1221
 2 SEMBAWANG SPRINGS …                6580000         6518.                 1010
 3 SERANGOON GARDEN E…                6000000         4312.                 1391
 4 KIM LIN PARK                      15050000         4867.                 3092
 5 N.A.                              11100000        10280.                 1080
 6 N.A.                              55500000        25681.                 2161
 7 EDEN PARK                         11000000         5225.                 2105
 8 N.A.                              10200000        10640.                  959
 9 GREEN HILL ESTATE                  7268000         5999.                 1212
10 N.A.                              12800000         5293.                 2418
# ℹ 223 more rows
# ℹ 17 more variables: `Sale Date` <chr>, Address <chr>, `Type of Sale` <chr>,
#   `Type of Area` <chr>, `Area (SQM)` <dbl>, `Unit Price ($ PSM)` <dbl>,
#   `Nett Price($)` <chr>, `Property Type` <chr>, `Number of Units` <dbl>,
#   Tenure <chr>, `Completion Date` <chr>, `Purchaser Address Indicator` <chr>,
#   `Postal Code` <chr>, `Postal District` <chr>, `Postal Sector` <chr>,
#   `Planning Region` <chr>, `Planning Area` <chr>
…
Similarly, the code chunks below filter the combined data set to show only “Semi-Detached House” property type, and then plots a histogram to show the distribution of Unit Price ($ PSM) for Semi-Detached House:

semi_detached <- filter(private_property_data, `Property Type` == 'Semi-Detached House')

semi_detached

# A tibble: 524 × 21
   `Project Name`      `Transacted Price ($)` `Area (SQFT)` `Unit Price ($ PSF)`
   <chr>                                <dbl>         <dbl>                <dbl>
 1 PALMS @ SIXTH AVEN…                4950000         4521.                 1095
 2 FRANKEL ESTATE                     6765000         3962.                 1707
 3 N.A.                              12600000         5346.                 2357
 4 SEMBAWANG STRAITS …                2500000         1690.                 1479
 5 KINGSVILLE                         4750000         3412.                 1392
 6 TAI KENG GARDENS                   4280000         3595.                 1190
 7 SEA VIEW PARK                      6350000         3399.                 1868
 8 N.A.                               3900000         2455.                 1588
 9 CHIP HOCK GARDENS                 10500000         3148.                 3335
10 N.A.                               5880000         3239.                 1815
# ℹ 514 more rows
# ℹ 17 more variables: `Sale Date` <chr>, Address <chr>, `Type of Sale` <chr>,
#   `Type of Area` <chr>, `Area (SQM)` <dbl>, `Unit Price ($ PSM)` <dbl>,
#   `Nett Price($)` <chr>, `Property Type` <chr>, `Number of Units` <dbl>,
#   Tenure <chr>, `Completion Date` <chr>, `Purchaser Address Indicator` <chr>,
#   `Postal Code` <chr>, `Postal District` <chr>, `Postal Sector` <chr>,
#   `Planning Region` <chr>, `Planning Area` <chr>
…
Executive Condominium

The code chunks below filter the combined data set to show only “Executive Condominium” property type, and then plots a histogram to show the distribution of Unit Price ($ PSM) for Executive Condominium:

exec_condo <- filter(private_property_data, `Property Type` == 'Executive Condominium')

exec_condo

# A tibble: 3,534 × 21
   `Project Name`     `Transacted Price ($)` `Area (SQFT)` `Unit Price ($ PSF)`
   <chr>                               <dbl>         <dbl>                <dbl>
 1 NORTH GAIA                        1421112         1076.                 1320
 2 NORTH GAIA                        1258112         1033.                 1218
 3 NORTHOAKS                         1268000         1604.                  791
 4 TENET                             1224000          926.                 1322
 5 TENET                             1534000         1109.                 1384
 6 BELLEWATERS                       1745000         1335.                 1307
 7 THE VISIONAIRE                    1030000          947.                 1087
 8 THE CANOPY                         970000         1033.                  939
 9 SKYPARK RESIDENCES                1570000         1302.                 1205
10 THE BROWNSTONE                    1230000          958                  1284
# ℹ 3,524 more rows
# ℹ 17 more variables: `Sale Date` <chr>, Address <chr>, `Type of Sale` <chr>,
#   `Type of Area` <chr>, `Area (SQM)` <dbl>, `Unit Price ($ PSM)` <dbl>,
#   `Nett Price($)` <chr>, `Property Type` <chr>, `Number of Units` <dbl>,
#   Tenure <chr>, `Completion Date` <chr>, `Purchaser Address Indicator` <chr>,
#   `Postal Code` <chr>, `Postal District` <chr>, `Postal Sector` <chr>,
#   `Planning Region` <chr>, `Planning Area` <chr>
…
