ISSS608-VAA - Take-home Exercise 1
…
Check for duplicates

unique(residential)

# A tibble: 4,902 × 21
   `Project Name`      `Transacted Price ($)` `Area (SQFT)` `Unit Price ($ PSF)`
   <chr>                                <dbl>         <dbl>                <dbl>
 1 THE LANDMARK                       2726888         1076.                 2533
 2 POLLEN COLLECTION                  3850000         1808.                 2129
 3 SKY EDEN@BEDOK                     2346000         1087.                 2158
 4 TERRA HILL                         2190000          807.                 2713
 5 PINETREE HILL                      1954000          797.                 2453
 6 THE RESERVE RESIDE…                3412201         1324.                 2577
 7 SUMMER VILLAS                      2960000         3531.                  838
 8 THE MINTON                         1840000         1216.                 1513
 9 SEMBAWANG HILLS ES…                4200000         2093.                 2007
10 NV RESIDENCES                      1350000         1109.                 1218
# ℹ 4,892 more rows
# ℹ 17 more variables: `Sale Date` <chr>, Address <chr>, `Type of Sale` <chr>,
#   `Type of Area` <chr>, `Area (SQM)` <dbl>, `Unit Price ($ PSM)` <dbl>,
#   `Nett Price($)` <chr>, `Property Type` <chr>, `Number of Units` <dbl>,
#   Tenure <chr>, `Completion Date` <chr>, `Purchaser Address Indicator` <chr>,
#   `Postal Code` <chr>, `Postal District` <chr>, `Postal Sector` <chr>,
#   `Planning Region` <chr>, `Planning Area` <chr>
…
